vcpkg-cmake-wrapper.cmake 0aff2aee19cb387a53741eff165b75e07adfac34
FindStb.cmake 34b418520b21f42b693a5c2a80b3525c6117202a
CONTROL 501e6d72d8d33d199c418211002d638e0a204c07
portfile.cmake f12ecd314310ae570ccd691dbe9e117f482fadac
cmake 3.17.2
powershell ab1effc926b000a6adc12198a1886514ec203621a53b0cd7ec1cd9a8225dccda7e857feaabcfba4004bea73129b986abaad777c4573f44e0af70411226ce08b0
vcpkg_fixup_cmake_targets dac334f3bf50b8262be92623168023aa565aa729
post_build_checks 2
triplet 2fc5ad39ea5a8f07f2c4101d47c9ef6f271d9c43
features core
