portfile.cmake a524c94610e59bf5e967c88d4275ea55fa491865
CONTROL c19a13f4262b843bd93da2b46632124fee6ad035
cmake 3.17.2
powershell ab1effc926b000a6adc12198a1886514ec203621a53b0cd7ec1cd9a8225dccda7e857feaabcfba4004bea73129b986abaad777c4573f44e0af70411226ce08b0
vcpkg_fixup_cmake_targets dac334f3bf50b8262be92623168023aa565aa729
post_build_checks 2
triplet 11b48685057027ff91b8ac481e606bbf604cef3b
features core
