export-targets.patch 11cfd5c8e669b4d193b4816219394a7e68dc18f3
CONTROL 8cef42b0857871caae1279062a61ec420f2088cb
portfile.cmake d5ebf3a8c0a4e9b7deea536f886c8dc0ec25ee60
cmake 3.17.2
powershell ab1effc926b000a6adc12198a1886514ec203621a53b0cd7ec1cd9a8225dccda7e857feaabcfba4004bea73129b986abaad777c4573f44e0af70411226ce08b0
vcpkg_fixup_cmake_targets dac334f3bf50b8262be92623168023aa565aa729
post_build_checks 2
triplet 11b48685057027ff91b8ac481e606bbf604cef3b
features core
