bzip2 94e589687054e020b1c8f55327c527e195191051
libpng 3e1b349173bbb470fdddf05477c7afdb362fb267
zlib 125f171a0d1f5ebca2dab8c0b54c91793555a3c6
0002-Add-CONFIG_INSTALL_PATH-option.patch 00e6ed6153368e658f945c084b50b6805459adbc
0005-Fix-DLL-EXPORTS.patch 34c1143447c7e54cb124cc0072092fbb0d1ca546
vcpkg-cmake-wrapper.cmake 3d05490c6a51adf29feb217275aaadf85e2c7e3e
CONTROL 3fda4dfc189b9b5ee6205ed57aa9f04390b2a831
0003-Fix-UWP.patch 47cf5e617f6a881a879ccfd6a9fc719c347f89fd
0001-Fix-install-command.patch 91a1dda6aa372f3c42ab0ff24b80ba22dc14e6f9
portfile.cmake e61dcc46720fa39aee9d456c2c3e2d224b3db442
cmake 3.17.2
powershell ab1effc926b000a6adc12198a1886514ec203621a53b0cd7ec1cd9a8225dccda7e857feaabcfba4004bea73129b986abaad777c4573f44e0af70411226ce08b0
vcpkg_fixup_cmake_targets dac334f3bf50b8262be92623168023aa565aa729
post_build_checks 2
triplet 11b48685057027ff91b8ac481e606bbf604cef3b
features bzip2;core;png
